[{"line":1,"elements":[{"line":2,"name":"Get all active users","description":"","id":"get-all-active-users","type":"scenario","keyword":"Scenario","steps":[{"name":"def query = {status:'active',gender : 'female', id:4003}","result":{"duration":23767000,"status":"passed"},"match":{"location":"karate","arguments":[]},"keyword":"*","line":3,"doc_string":{"content_type":"","value":"20:17:23.302 skipping bootstrap configuration: could not find or read file: classpath:karate-config.js","line":3}},{"name":"url 'https:\/\/gorest.co.in\/public\/v1\/users'","result":{"duration":1265958,"status":"passed"},"match":{"location":"karate","arguments":[]},"keyword":"Given","line":4},{"name":"params query","result":{"duration":129125,"status":"passed"},"match":{"location":"karate","arguments":[]},"keyword":"And","line":5},{"name":"method GET","result":{"duration":1540052541,"status":"passed"},"match":{"location":"karate","arguments":[]},"keyword":"When","line":6,"doc_string":{"content_type":"","value":"20:17:23.463 request:\n1 > GET https:\/\/gorest.co.in\/public\/v1\/users?status=active&gender=female&id=4003\n1 > Accept-Encoding: gzip,deflate\n1 > Connection: Keep-Alive\n1 > Host: gorest.co.in\n1 > User-Agent: Apache-HttpClient\/4.5.12 (Java\/1.8.0_312)\n\n20:17:24.874 response time in milliseconds: 1407.17\n1 < 200\n1 < CF-Cache-Status: DYNAMIC\n1 < CF-RAY: 73b2b9a8cc947201-LHR\n1 < Cache-Control: max-age=0, private, must-revalidate\n1 < Connection: keep-alive\n1 < Content-Type: application\/json; charset=utf-8\n1 < Date: Mon, 15 Aug 2022 14:47:24 GMT\n1 < ETag: W\/\"c7699a913e2f90a1e585f179f2acd0ca\"\n1 < Expect-CT: max-age=604800, report-uri=\"https:\/\/report-uri.cloudflare.com\/cdn-cgi\/beacon\/expect-ct\"\n1 < NEL: {\"success_fraction\":0,\"report_to\":\"cf-nel\",\"max_age\":604800}\n1 < Referrer-Policy: strict-origin-when-cross-origin\n1 < Report-To: {\"endpoints\":[{\"url\":\"https:\\\/\\\/a.nel.cloudflare.com\\\/report\\\/v3?s=X%2FdU8a8C6mCaDNUuS8XYb9JqOAeoqEdBIrjUTHov3RKRTQff6R2ahqdS52SOy55CH%2BVun4c9fMUyuSmvcxWqMn0UXo9ocwL4kPUfzeHByFrMLKi%2FQHVENakNNK9H4nA%3D\"}],\"group\":\"cf-nel\",\"max_age\":604800}\n1 < Server: cloudflare\n1 < Strict-Transport-Security: max-age=63072000; includeSubDomains\n1 < Transfer-Encoding: chunked\n1 < Vary: [Accept-Encoding, Origin]\n1 < X-Content-Type-Options: nosniff\n1 < X-Download-Options: noopen\n1 < X-Frame-Options: SAMEORIGIN\n1 < X-Permitted-Cross-Domain-Policies: none\n1 < X-Request-Id: 3b4da327-cafe-4005-a552-f07c06ec2798\n1 < X-Runtime: 0.005128\n1 < X-XSS-Protection: 0\n1 < alt-svc: h3=\":443\"; ma=86400, h3-29=\":443\"; ma=86400\n{\"meta\":{\"pagination\":{\"total\":1,\"pages\":1,\"page\":1,\"limit\":10,\"links\":{\"previous\":null,\"current\":\"https:\/\/gorest.co.in\/public\/v1\/users?page=1\",\"next\":null}}},\"data\":[{\"id\":4003,\"name\":\"Vishwamitra Iyer\",\"email\":\"vishwamitra_iyer@jerde.com\",\"gender\":\"female\",\"status\":\"active\"}]}","line":6}},{"name":"status 200","result":{"duration":14250,"status":"passed"},"match":{"location":"karate","arguments":[]},"keyword":"Then","line":7},{"name":"print response","result":{"duration":478083,"status":"passed"},"match":{"location":"karate","arguments":[]},"keyword":"*","line":8,"doc_string":{"content_type":"","value":"20:17:24.876 [print] {\n  \"data\": [\n    {\n      \"gender\": \"female\",\n      \"name\": \"Vishwamitra Iyer\",\n      \"id\": 4003,\n      \"email\": \"vishwamitra_iyer@jerde.com\",\n      \"status\": \"active\"\n    }\n  ],\n  \"meta\": {\n    \"pagination\": {\n      \"total\": 1,\n      \"pages\": 1,\n      \"limit\": 10,\n      \"links\": {\n        \"next\": null,\n        \"current\": \"https:\/\/gorest.co.in\/public\/v1\/users?page=1\",\n        \"previous\": null\n      },\n      \"page\": 1\n    }\n  }\n}","line":8}}]},{"line":11,"name":"Get all active users","description":"","id":"get-all-active-users","type":"scenario","keyword":"Scenario","steps":[{"name":"def query = {status:'active'}","result":{"duration":169625,"status":"passed"},"match":{"location":"karate","arguments":[]},"keyword":"*","line":12,"doc_string":{"content_type":"","value":"20:17:24.883 skipping bootstrap configuration: could not find or read file: classpath:karate-config.js","line":12}},{"name":"url 'https:\/\/gorest.co.in\/public\/v1\/users'","result":{"duration":110125,"status":"passed"},"match":{"location":"karate","arguments":[]},"keyword":"Given","line":13},{"name":"params query","result":{"duration":79375,"status":"passed"},"match":{"location":"karate","arguments":[]},"keyword":"And","line":14},{"name":"method GET","result":{"duration":1133862541,"status":"passed"},"match":{"location":"karate","arguments":[]},"keyword":"When","line":15,"doc_string":{"content_type":"","value":"20:17:24.886 request:\n1 > GET https:\/\/gorest.co.in\/public\/v1\/users?status=active\n1 > Accept-Encoding: gzip,deflate\n1 > Connection: Keep-Alive\n1 > Host: gorest.co.in\n1 > User-Agent: Apache-HttpClient\/4.5.12 (Java\/1.8.0_312)\n\n20:17:26.017 response time in milliseconds: 1129.16\n1 < 200\n1 < CF-Cache-Status: DYNAMIC\n1 < CF-RAY: 73b2b9b15b000c05-AMS\n1 < Cache-Control: max-age=0, private, must-revalidate\n1 < Connection: keep-alive\n1 < Content-Type: application\/json; charset=utf-8\n1 < Date: Mon, 15 Aug 2022 14:47:26 GMT\n1 < ETag: W\/\"11886904cc2d3a16ab6e4447ea5c0904\"\n1 < Expect-CT: max-age=604800, report-uri=\"https:\/\/report-uri.cloudflare.com\/cdn-cgi\/beacon\/expect-ct\"\n1 < NEL: {\"success_fraction\":0,\"report_to\":\"cf-nel\",\"max_age\":604800}\n1 < Referrer-Policy: strict-origin-when-cross-origin\n1 < Report-To: {\"endpoints\":[{\"url\":\"https:\\\/\\\/a.nel.cloudflare.com\\\/report\\\/v3?s=gApW6sA9zfEccf3HEWYsho1Iemf2mlpjikIsoCeOjFFgA%2FAAna7uwRc4u%2BVbNPIQ3mQ0JYiJNInbV90Fmzf1j7Z4BqQT4dRhLnHX3vgMNOxx9QcaDvrBMiRCMtiArtA%3D\"}],\"group\":\"cf-nel\",\"max_age\":604800}\n1 < Server: cloudflare\n1 < Strict-Transport-Security: max-age=63072000; includeSubDomains\n1 < Transfer-Encoding: chunked\n1 < Vary: [Accept-Encoding, Origin]\n1 < X-Content-Type-Options: nosniff\n1 < X-Download-Options: noopen\n1 < X-Frame-Options: SAMEORIGIN\n1 < X-Permitted-Cross-Domain-Policies: none\n1 < X-Request-Id: c05dd56f-859a-47a1-82f3-f5fa370e9b11\n1 < X-Runtime: 0.007023\n1 < X-XSS-Protection: 0\n1 < alt-svc: h3=\":443\"; ma=86400, h3-29=\":443\"; ma=86400\n{\"meta\":{\"pagination\":{\"total\":2052,\"pages\":206,\"page\":1,\"limit\":10,\"links\":{\"previous\":null,\"current\":\"https:\/\/gorest.co.in\/public\/v1\/users?page=1\",\"next\":\"https:\/\/gorest.co.in\/public\/v1\/users?page=2\"}}},\"data\":[{\"id\":4003,\"name\":\"Vishwamitra Iyer\",\"email\":\"vishwamitra_iyer@jerde.com\",\"gender\":\"female\",\"status\":\"active\"},{\"id\":4002,\"name\":\"Swapnil Ganaka\",\"email\":\"swapnil_ganaka@abbott-brakus.info\",\"gender\":\"female\",\"status\":\"active\"},{\"id\":4000,\"name\":\"Prof. Saraswati Jain\",\"email\":\"jain_saraswati_prof@sauer.net\",\"gender\":\"female\",\"status\":\"active\"},{\"id\":3994,\"name\":\"Amrita Jha\",\"email\":\"amrita_jha@towne.io\",\"gender\":\"female\",\"status\":\"active\"},{\"id\":3991,\"name\":\"Chitramala Bharadwaj PhD\",\"email\":\"phd_chitramala_bharadwaj@sauer.org\",\"gender\":\"male\",\"status\":\"active\"},{\"id\":3987,\"name\":\"Sukanya Bhattathiri\",\"email\":\"bhattathiri_sukanya@zemlak.net\",\"gender\":\"male\",\"status\":\"active\"},{\"id\":3986,\"name\":\"Anila Iyer\",\"email\":\"iyer_anila@murphy-gislason.co\",\"gender\":\"male\",\"status\":\"active\"},{\"id\":3985,\"name\":\"Amrita Khatri\",\"email\":\"khatri_amrita@volkman.org\",\"gender\":\"male\",\"status\":\"active\"},{\"id\":3981,\"name\":\"Charak Gill\",\"email\":\"charak_gill@muller.co\",\"gender\":\"male\",\"status\":\"active\"},{\"id\":3980,\"name\":\"Harinarayan Pillai DO\",\"email\":\"pillai_harinarayan_do@berge.org\",\"gender\":\"female\",\"status\":\"active\"}]}","line":15}},{"name":"status 200","result":{"duration":12750,"status":"passed"},"match":{"location":"karate","arguments":[]},"keyword":"Then","line":16},{"name":"def jsonResponse =  response","result":{"duration":47375,"status":"passed"},"match":{"location":"karate","arguments":[]},"keyword":"*","line":17},{"name":"print jsonResponse","result":{"duration":734791,"status":"passed"},"match":{"location":"karate","arguments":[]},"keyword":"*","line":18,"doc_string":{"content_type":"","value":"20:17:26.019 [print] {\n  \"data\": [\n    {\n      \"gender\": \"female\",\n      \"name\": \"Vishwamitra Iyer\",\n      \"id\": 4003,\n      \"email\": \"vishwamitra_iyer@jerde.com\",\n      \"status\": \"active\"\n    },\n    {\n      \"gender\": \"female\",\n      \"name\": \"Swapnil Ganaka\",\n      \"id\": 4002,\n      \"email\": \"swapnil_ganaka@abbott-brakus.info\",\n      \"status\": \"active\"\n    },\n    {\n      \"gender\": \"female\",\n      \"name\": \"Prof. Saraswati Jain\",\n      \"id\": 4000,\n      \"email\": \"jain_saraswati_prof@sauer.net\",\n      \"status\": \"active\"\n    },\n    {\n      \"gender\": \"female\",\n      \"name\": \"Amrita Jha\",\n      \"id\": 3994,\n      \"email\": \"amrita_jha@towne.io\",\n      \"status\": \"active\"\n    },\n    {\n      \"gender\": \"male\",\n      \"name\": \"Chitramala Bharadwaj PhD\",\n      \"id\": 3991,\n      \"email\": \"phd_chitramala_bharadwaj@sauer.org\",\n      \"status\": \"active\"\n    },\n    {\n      \"gender\": \"male\",\n      \"name\": \"Sukanya Bhattathiri\",\n      \"id\": 3987,\n      \"email\": \"bhattathiri_sukanya@zemlak.net\",\n      \"status\": \"active\"\n    },\n    {\n      \"gender\": \"male\",\n      \"name\": \"Anila Iyer\",\n      \"id\": 3986,\n      \"email\": \"iyer_anila@murphy-gislason.co\",\n      \"status\": \"active\"\n    },\n    {\n      \"gender\": \"male\",\n      \"name\": \"Amrita Khatri\",\n      \"id\": 3985,\n      \"email\": \"khatri_amrita@volkman.org\",\n      \"status\": \"active\"\n    },\n    {\n      \"gender\": \"male\",\n      \"name\": \"Charak Gill\",\n      \"id\": 3981,\n      \"email\": \"charak_gill@muller.co\",\n      \"status\": \"active\"\n    },\n    {\n      \"gender\": \"female\",\n      \"name\": \"Harinarayan Pillai DO\",\n      \"id\": 3980,\n      \"email\": \"pillai_harinarayan_do@berge.org\",\n      \"status\": \"active\"\n    }\n  ],\n  \"meta\": {\n    \"pagination\": {\n      \"total\": 2052,\n      \"pages\": 206,\n      \"limit\": 10,\n      \"links\": {\n        \"next\": \"https:\/\/gorest.co.in\/public\/v1\/users?page=2\",\n        \"current\": \"https:\/\/gorest.co.in\/public\/v1\/users?page=1\",\n        \"previous\": null\n      },\n      \"page\": 1\n    }\n  }\n}","line":18}},{"name":"def userCount = jsonResponse.data.length","result":{"duration":15133750,"status":"passed"},"match":{"location":"karate","arguments":[]},"keyword":"*","line":19},{"name":"print userCount","result":{"duration":231583,"status":"passed"},"match":{"location":"karate","arguments":[]},"keyword":"*","line":20,"doc_string":{"content_type":"","value":"20:17:26.035 [print] 10","line":20}}]}],"name":"src\/test\/features\/getapiwithqueryparameter.feature","description":"GET API with Query Parameters","id":"get-api-with-query-parameters","keyword":"Feature","uri":"src\/test\/features\/getapiwithqueryparameter.feature"}]